[
  {
    "ParameterKey": "VpcCidr",
    "ParameterValue": "10.0.0.0/16"
  },
  {
    "ParameterKey": "AvailabilityZoneCount",
    "ParameterValue": "1"
  },
  {
    "ParameterKey": "SubnetBits",
    "ParameterValue": "8"
  }
]
