{
  "OutputKey": "ExternalApiTargetGroupArn",
  "OutputValue": "arn:aws:elasticloadbalancing:us-west-2:825146588504:targetgroup/cfupi-Exter-12O1BO0EVCFDN/d3448d5ad90f1671",
  "Description": "ARN of the external API target group."
}
{
  "OutputKey": "InternalApiTargetGroupArn",
  "OutputValue": "arn:aws:elasticloadbalancing:us-west-2:825146588504:targetgroup/cfupi-Inter-1W1MCXURM57GG/67ee7fcf190bd6d1",
  "Description": "ARN of the internal API target group."
}
{
  "OutputKey": "ApiServerDnsName",
  "OutputValue": "api-int.cfupi.aws.tofu.farm",
  "Description": "Full hostname of the API server, which is required for the Ignition config files."
}
{
  "OutputKey": "PrivateHostedZoneId",
  "OutputValue": "Z0662305D20DHR6EU6BG",
  "Description": "Hosted zone ID for the private DNS, which is required for private records."
}
{
  "OutputKey": "InternalApiLoadBalancerName",
  "OutputValue": "net/cfupi-7898h-int/2f338ed6f5cf510f",
  "Description": "Full name of the internal API load balancer."
}
{
  "OutputKey": "RegisterNlbIpTargetsLambda",
  "OutputValue": "arn:aws:lambda:us-west-2:825146588504:function:cfupi-7898h-02-RegisterNlbIpTargets-5DVHAMHESM8D",
  "Description": "Lambda ARN useful to help register or deregister IP targets for these load balancers."
}
{
  "OutputKey": "InternalServiceTargetGroupArn",
  "OutputValue": "arn:aws:elasticloadbalancing:us-west-2:825146588504:targetgroup/cfupi-Inter-11ZLFP51TEYIR/7e55ce0730c9ab34",
  "Description": "ARN of the internal service target group."
}
{
  "OutputKey": "ExternalApiLoadBalancerName",
  "OutputValue": "net/cfupi-7898h-ext/be465a1da47b6ab7",
  "Description": "Full name of the external API load balancer."
}
