{
  "OutputKey": "ExternalApiTargetGroupArn",
  "OutputValue": "arn:aws:elasticloadbalancing:us-west-2:825146588504:targetgroup/fullu-Exter-1CRGW7ZD2K5EV/3ed8d6f7781708b6",
  "Description": "ARN of the external API target group."
}
{
  "OutputKey": "InternalApiTargetGroupArn",
  "OutputValue": "arn:aws:elasticloadbalancing:us-west-2:825146588504:targetgroup/fullu-Inter-1OJO2515J1TCV/3d26f58d3975f008",
  "Description": "ARN of the internal API target group."
}
{
  "OutputKey": "ApiServerDnsName",
  "OutputValue": "api-int.fullupi.aws.tofu.farm",
  "Description": "Full hostname of the API server, which is required for the Ignition config files."
}
{
  "OutputKey": "PrivateHostedZoneId",
  "OutputValue": "Z03778053BBUMA8A4R98Z",
  "Description": "Hosted zone ID for the private DNS, which is required for private records."
}
{
  "OutputKey": "InternalApiLoadBalancerName",
  "OutputValue": "net/fullupi-xr76z-int/9072fb61985ab964",
  "Description": "Full name of the internal API load balancer."
}
{
  "OutputKey": "RegisterNlbIpTargetsLambda",
  "OutputValue": "arn:aws:lambda:us-west-2:825146588504:function:fullupi-xr76z-02-RegisterNlbIpTargets-18XATSGFYZ031",
  "Description": "Lambda ARN useful to help register or deregister IP targets for these load balancers."
}
{
  "OutputKey": "InternalServiceTargetGroupArn",
  "OutputValue": "arn:aws:elasticloadbalancing:us-west-2:825146588504:targetgroup/fullu-Inter-1DAVW2DDQQ7KR/e56243d943e87f98",
  "Description": "ARN of the internal service target group."
}
{
  "OutputKey": "ExternalApiLoadBalancerName",
  "OutputValue": "net/fullupi-xr76z-ext/74c04ff0a12afe4d",
  "Description": "Full name of the external API load balancer."
}
