{
  "OutputKey": "IngressLoadBalancerName",
  "OutputValue": "fullupi-xr76z-ingress-753658082.us-west-2.elb.amazonaws.com",
  "Description": "Full name of the external API load balancer."
}
{
  "OutputKey": "IngressSecurityGroupId",
  "OutputValue": "sg-0921821db8b4812fe",
  "Description": "Ingress Security Group ID"
}
{
  "OutputKey": "IngressDnsName",
  "OutputValue": "*.apps.fullupi.aws.tofu.farm",
  "Description": "Full hostname of the API server, which is required for the Ignition config files."
}
