[
  {
    "ParameterKey": "InfrastructureName",
    "ParameterValue": "mycluster-<random_string>"
  },
  {
    "ParameterKey": "RhcosAmi",
    "ParameterValue": "ami-<random_string>"
  },
  {
    "ParameterKey": "AllowedBootstrapSshCidr",
    "ParameterValue": "0.0.0.0/0"
  },
  {
    "ParameterKey": "PublicSubnet",
    "ParameterValue": "subnet-<random_string>"
  },
  {
    "ParameterKey": "MasterSecurityGroupId",
    "ParameterValue": "sg-<random_string>"
  },
  {
    "ParameterKey": "VpcId",
    "ParameterValue": "vpc-<random_string>"
  },
  {
    "ParameterKey": "BootstrapIgnitionLocation",
    "ParameterValue": "s3://<bucket_name>/bootstrap.ign"
  },
  {
    "ParameterKey": "AutoRegisterELB",
    "ParameterValue": "yes"
  },
  {
    "ParameterKey": "RegisterNlbIpTargetsLambdaArn",
    "ParameterValue": "arn:aws:lambda:<region>:<account_number>:function:<dns_stack_name>-RegisterNlbIpTargets-<random_string>"
  },
  {
    "ParameterKey": "ExternalApiTargetGroupArn",
    "ParameterValue": "arn:aws:elasticloadbalancing:<region>:<account_number>:targetgroup/<dns_stack_name>-Exter-<random_string>"
  },
  {
    "ParameterKey": "InternalApiTargetGroupArn",
    "ParameterValue": "arn:aws:elasticloadbalancing:<region>:<account_number>:targetgroup/<dns_stack_name>-Inter-<random_string>"
  },
  {
    "ParameterKey": "InternalServiceTargetGroupArn",
    "ParameterValue": "arn:aws:elasticloadbalancing:<region>:<account_number>:targetgroup/<dns_stack_name>-Inter-<random_string>"
  }
]

